<?xml version="1.0" encoding="utf-8"?>
<!-- Generator: Adobe Illustrator 21.1.0, SVG Export Plug-In . SVG Version: 6.00 Build 0)  -->
<svg version="1.1" id="Capa_1" xmlns="http://www.w3.org/2000/svg" xmlns:xlink="http://www.w3.org/1999/xlink" x="0px" y="0px"
	 viewBox="0 0 200 200" style="enable-background:new 0 0 200 200;" xml:space="preserve">
<g>
	<g>
		<g>
			<g>
				<path d="M144.9,180h-38.2v-10.9H63.1V180H24.9v-76.3h38.3c1.3,10.7,10.5,19.1,21.6,19.1c5.5,0,10.8-2.1,14.8-5.8l-3.7-4
					c-3,2.8-7,4.4-11.1,4.4c-8.1,0-14.8-5.9-16.1-13.6h27v-5.5h-27c1.3-7.7,8-13.6,16.1-13.6c4.1,0,8.1,1.6,11.1,4.4l3.7-4
					c-4.1-3.8-9.3-5.8-14.8-5.8c-11.1,0-20.3,8.3-21.6,19.1H24.9V22h38.2v10.9h43.6V22h38.2v30h5.5V16.5H19.5v169h130.8v-35.4h-5.5
					V180z M68.5,22h32.7v5.5H68.5V22z M101.2,180H68.5v-5.5h32.7V180z"/>
				<path d="M123.1,43.8V27.4h-5.5v10.9H52.2V27.4h-5.5v16.4h16.5c1.3,10.7,10.5,19.1,21.6,19.1s20.3-8.3,21.6-19.1H123.1z
					 M84.9,57.4c-8.1,0-14.8-5.9-16.1-13.6H101C99.7,51.5,93,57.4,84.9,57.4z"/>
				<path d="M123.1,174.6v-16.4h-16.5c-1.3-10.7-10.5-19.1-21.6-19.1s-20.3,8.3-21.6,19.1H46.7v16.4h5.5v-10.9h65.4v10.9H123.1z
					 M68.8,158.2c1.3-7.7,8-13.6,16.1-13.6s14.8,5.9,16.1,13.6H68.8z"/>
				<path d="M144.9,57.4c-24,0-43.6,19.6-43.6,43.6s19.6,43.6,43.6,43.6s43.6-19.6,43.6-43.6S168.9,57.4,144.9,57.4z M179.1,84.2
					c1.9,3.9,3.3,8.2,3.7,12.8l-5-5L179.1,84.2z M174.7,77.2L172.4,91l-8,4l-16.8-14.4v-8l12.9-6.5
					C166.1,68.7,170.9,72.5,174.7,77.2z M160.6,99l-6.7,15.6h-18.2L129.1,99l15.8-13.5L160.6,99z M144.9,62.8c2.9,0,5.7,0.3,8.4,1
					l-8.4,4.2l-8.4-4.2C139.2,63.2,142,62.8,144.9,62.8z M129.2,66.2l12.9,6.5v8L125.4,95l-8-4L115,77.2
					C118.8,72.5,123.7,68.7,129.2,66.2z M110.7,84.2l1.3,7.7l-5,5C107.4,92.4,108.7,88.1,110.7,84.2z M121.3,131h7.8l1.3,5.3
					C127.1,135,124.1,133.2,121.3,131z M129.1,125.5h-13.4c-4.8-5.8-8-13-8.8-20.9l8.5-8.5l8.3,4.1l7.4,17.3L129.1,125.5z
					 M153.2,138.2c-2.7,0.6-5.5,0.9-8.3,0.9c-2.9,0-5.6-0.3-8.3-0.9l-2.5-10l2-8.2h17.5l2,8.2L153.2,138.2z M159.3,136.3l1.3-5.3
					h7.8C165.6,133.2,162.6,135,159.3,136.3z M174,125.5h-13.4l-2-7.9l7.4-17.3l8.3-4.1l8.5,8.5C182.1,112.6,178.9,119.8,174,125.5z
					"/>
			</g>
		</g>
	</g>
</g>
</svg>
